module gitlab.com/birowo/oauth2-google

go 1.19

require golang.org/x/oauth2 v0.3.0

require (
	cloud.google.com/go/compute/metadata v0.2.0 // indirect
	github.com/golang/protobuf v1.5.2 // indirect
	golang.org/x/net v0.3.0 // indirect
	google.golang.org/appengine v1.6.7 // indirect
	google.golang.org/protobuf v1.28.0 // indirect
)
